{
    "profiles": [],
    "schemes": [
        {
            "name": "Monokai",
            "background": "#272822",
            "foreground": "#F8F8F2",
            "selectionBackground": "#FFFFFF",
            "cursorColor": "#F8F8F2",
            "black": "#272822",
            "brightBlack": "#4C4E42",
            "red": "#FC5D7C",
            "brightRed": "#F92672",
            "green": "#9ED072",
            "brightGreen": "#A6E22E",
            "yellow": "#E7C664",
            "brightYellow": "#F4BF75",
            "blue": "#76CCE0",
            "brightBlue": "#66D9EF",
            "purple": "#B39DF3",
            "brightPurple": "#AE81FF",
            "cyan": "#A1EFE4",
            "brightCyan": "#A1EFE4",
            "white": "#E2E2E3",
            "brightWhite": "#F8F8F2"
        }
    ]
}